<svg width="59" height="56" viewBox="0 0 59 56" fill="none" xmlns="http://www.w3.org/2000/svg">
<path fill-rule="evenodd" clip-rule="evenodd" d="M39.9545 16.3346L44.3454 24.9324L50.9606 29.2501V37.3346H48.1704C47.1889 34.6159 44.5405 32.668 41.4274 32.668C38.3144 32.668 35.666 34.6159 34.6844 37.3346H24.3376C23.3561 34.6159 20.7077 32.668 17.5946 32.668C14.4815 32.668 11.8331 34.6159 10.8516 37.3346H8.06149V16.3346H39.9545ZM50.9606 42.0013H48.1704C47.1889 44.7201 44.5405 46.668 41.4274 46.668C38.3144 46.668 35.666 44.7201 34.6844 42.0013H24.3376C23.3561 44.7201 20.7077 46.668 17.5946 46.668C14.4815 46.668 11.8331 44.7201 10.8516 42.0013H8.06149C5.42899 42.0013 3.29492 39.912 3.29492 37.3346V16.3346C3.29492 13.7573 5.42899 11.668 8.06149 11.668H39.9545C41.7599 11.668 43.4104 12.6666 44.2178 14.2476L48.0426 21.7369L55.7271 26.7525V37.3346C55.7271 39.912 53.5931 42.0013 50.9606 42.0013ZM19.9779 39.668C19.9779 40.9566 18.9109 42.0013 17.5946 42.0013C16.2784 42.0013 15.2113 40.9566 15.2113 39.668C15.2113 38.3793 16.2784 37.3346 17.5946 37.3346C18.9109 37.3346 19.9779 38.3793 19.9779 39.668ZM43.8107 39.668C43.8107 40.9566 42.7437 42.0013 41.4274 42.0013C40.1112 42.0013 39.0442 40.9566 39.0442 39.668C39.0442 38.3793 40.1112 37.3346 41.4274 37.3346C42.7437 37.3346 43.8107 38.3793 43.8107 39.668Z" fill="black"/>
</svg>
